stt	cultivars	Alcohol	Malic acid	Ash	Alcalinity of ash	Magnesium	Total phenols	Flavanoids	Nonflavanoid phenols	Proanthocyanins	Color intensity	Hue	OD280/OD315 of diluted wines	Proline
1	2	12	3.43	2	19	87	2	1.64	0.37	1.87	1.28	0.93	3.05	564
2	2	11.45	2.4	2.42	20	96	2.9	2.79	0.32	1.83	3.25	0.8	3.39	625
3	2	11.56	2.05	3.23	28.5	119	3.18	5.08	0.47	1.87	6	0.93	3.69	465
4	2	12.42	4.43	2.73	26.5	102	2.2	2.13	0.43	1.71	2.08	0.92	3.12	365
5	2	13.05	5.8	2.13	21.5	86	2.62	2.65	0.3	2.01	2.6	0.73	3.1	380
6	2	11.87	4.31	2.39	21	82	2.86	3.03	0.21	2.91	2.8	0.75	3.64	380
7	2	12.07	2.16	2.17	21	85	2.6	2.65	0.37	1.35	2.76	0.86	3.28	378
8	2	12.43	1.53	2.29	21.5	86	2.74	3.15	0.39	1.77	3.94	0.69	2.84	352
9	2	11.79	2.13	2.78	28.5	92	2.13	2.24	0.58	1.76	3	0.97	2.44	466
10	2	12.37	1.63	2.3	24.5	88	2.22	2.45	0.4	1.9	2.12	0.89	2.78	342
11	2	12.04	4.3	2.38	22	80	2.1	1.75	0.42	1.35	2.6	0.79	2.57	580
12	3	12.86	1.35	2.32	18	122	1.51	1.25	0.21	0.94	4.1	0.76	1.29	630
13	3	12.88	2.99	2.4	20	104	1.3	1.22	0.24	0.83	5.4	0.74	1.42	530
14	3	12.81	2.31	2.4	24	98	1.15	1.09	0.27	0.83	5.7	0.66	1.36	560
15	3	12.7	3.55	2.36	21.5	106	1.7	1.2	0.17	0.84	5	0.78	1.29	600
16	3	12.51	1.24	2.25	17.5	85	2	0.58	0.6	1.25	5.45	0.75	1.51	650
17	3	12.6	2.46	2.2	18.5	94	1.62	0.66	0.63	0.94	7.1	0.73	1.58	695
18	3	12.25	4.72	2.54	21	89	1.38	0.47	0.53	0.8	3.85	0.75	1.27	720
19	3	12.53	5.51	2.64	25	96	1.79	0.6	0.63	1.1	5	0.82	1.69	515
20	3	13.49	3.59	2.19	19.5	88	1.62	0.48	0.58	0.88	5.7	0.81	1.82	580
21	3	12.84	2.96	2.61	24	101	2.32	0.6	0.53	0.81	4.92	0.89	2.15	590
22	3	12.93	2.81	2.7	21	96	1.54	0.5	0.53	0.75	4.6	0.77	2.31	600

